lab1/test.vcd
$comment Generated by nMigen $end
$date 2020-08-30 23:12:04.673545 $end
$timescale 100 ps $end
$scope module top $end
$scope module dsp_chain $end
$var wire 1 0 clk $end
$var wire 1 1 rst $end
$var wire 8 2 x_t0 $end
$var wire 8 3 x_t1 $end
$var wire 8 4 x_t2 $end
$var wire 8 5 x_t3 $end
$var wire 8 6 y_t $end
$var wire 8 7 x_t $end
$upscope $end
$upscope $end
$enddefinitions $end
#0
$dumpvars
00
01
b0 2
b0 3
b0 4
b0 5
b0 6
b0 7
$end
#5
10
b1 7
b1 5
b1 6
#10
00
#15
10
b1 4
b10 6
#20
00
#25
10
b1 3
b11 6
#30
00
#35
10
b1 2
b100 6
#40
00
#45
10
#50
00
#55
10
b0 7
b0 5
b11 6
#60
00
#65
10
b0 4
b10 6
#70
00
#75
10
b0 3
b1 6
#80
00
#85
10
b0 2
b0 6
